<?xml version="1.0" encoding="UTF-8"?>
<svg width="17px" height="16px" viewBox="0 0 17 16" version="1.1" xmlns="http://www.w3.org/2000/svg" xmlns:xlink="http://www.w3.org/1999/xlink">
    <!-- Generator: Sketch 52.3 (67297) - http://www.bohemiancoding.com/sketch -->
    <title>back copy</title>
    <desc>Created with Sketch.</desc>
    <g id="main" stroke="none" stroke-width="1" fill="none" fill-rule="evenodd">
        <g id="關注" transform="translate(-28.000000, -32.000000)" fill="#FFFFFF">
            <g id="back-copy" transform="translate(28.000000, 32.000000)">
                <polygon id="Shape" points="4.5 7 10.1 1.4 8.7 0 0.7 8 8.7 16 10.1 14.6 4.5 9 16.7 9 16.7 7"></polygon>
            </g>
        </g>
    </g>
</svg>