<?xml version="1.0" encoding="utf-8"?>
<!-- Generator: Adobe Illustrator 22.0.1, SVG Export Plug-In . SVG Version: 6.00 Build 0)  -->
<svg version="1.1" id="圖層_1" xmlns="http://www.w3.org/2000/svg" xmlns:xlink="http://www.w3.org/1999/xlink" x="0px" y="0px"
	 viewBox="0 0 161 121" style="enable-background:new 0 0 161 121;" xml:space="preserve">
<style type="text/css">
	.st0{fill:url(#SVGID_1_);filter:url(#Adobe_OpacityMaskFilter);}
	.st1{mask:url(#mask_1_);}
	.st2{fill:#30395A;}
	.st3{fill:none;stroke:#FFFFFF;stroke-width:2.1189;stroke-miterlimit:10;}
</style>
<title>bottomactive</title>
<g>
	<g id="圖層_2_1_">
		<g id="圖層_1-2">
			<defs>
				<filter id="Adobe_OpacityMaskFilter" filterUnits="userSpaceOnUse" x="-38.9" y="0" width="198.4" height="121">
					<feColorMatrix  type="matrix" values="1 0 0 0 0  0 1 0 0 0  0 0 1 0 0  0 0 0 1 0"/>
				</filter>
			</defs>
			<mask maskUnits="userSpaceOnUse" x="-38.9" y="0" width="198.4" height="121" id="mask_1_">
				
					<linearGradient id="SVGID_1_" gradientUnits="userSpaceOnUse" x1="99.45" y1="114.11" x2="99.45" y2="7.99" gradientTransform="matrix(1 0 0 -1 0 122)">
					<stop  offset="0" style="stop-color:#000000"/>
					<stop  offset="1.000000e-02" style="stop-color:#161616"/>
					<stop  offset="5.000000e-02" style="stop-color:#464646"/>
					<stop  offset="8.000000e-02" style="stop-color:#727272"/>
					<stop  offset="0.12" style="stop-color:#989898"/>
					<stop  offset="0.16" style="stop-color:#B8B8B8"/>
					<stop  offset="0.21" style="stop-color:#D2D2D2"/>
					<stop  offset="0.26" style="stop-color:#E6E6E6"/>
					<stop  offset="0.31" style="stop-color:#F4F4F4"/>
					<stop  offset="0.38" style="stop-color:#FDFDFD"/>
					<stop  offset="0.49" style="stop-color:#FFFFFF"/>
					<stop  offset="0.63" style="stop-color:#FDFDFD"/>
					<stop  offset="0.7" style="stop-color:#F5F5F5"/>
					<stop  offset="0.76" style="stop-color:#E8E8E8"/>
					<stop  offset="0.8" style="stop-color:#D5D5D5"/>
					<stop  offset="0.84" style="stop-color:#BDBDBD"/>
					<stop  offset="0.88" style="stop-color:#9E9E9E"/>
					<stop  offset="0.92" style="stop-color:#7B7B7B"/>
					<stop  offset="0.95" style="stop-color:#515151"/>
					<stop  offset="0.98" style="stop-color:#232323"/>
					<stop  offset="1" style="stop-color:#000000"/>
				</linearGradient>
				<polygon class="st0" points="194.1,115.2 5.3,115.2 4.8,5.2 194.1,5.2 				"/>
			</mask>
			<g class="st1">
				<g transform="matrix(1 0 0 1 0 0)" style="opacity:0.75;enable-background:new    ;">
					
						<image style="overflow:visible;" width="200" height="122" xlink:href="7F201F82A2A98C97.png"  transform="matrix(0.9918 0 0 0.9918 -38.8607 0)">
					</image>
				</g>
				<polygon class="st2" points="154.9,115.2 5.3,115.2 4.8,5.2 154.9,5.2 				"/>
				<polygon class="st3" points="154.9,115.2 5.3,115.2 4.8,5.2 154.9,5.2 				"/>
			</g>
		</g>
	</g>
</g>
</svg>
