<?xml version="1.0" encoding="UTF-8"?>
<svg width="30px" height="30px" viewBox="0 0 30 30" version="1.1" xmlns="http://www.w3.org/2000/svg" xmlns:xlink="http://www.w3.org/1999/xlink">
    <!-- Generator: Sketch 52.3 (67297) - http://www.bohemiancoding.com/sketch -->
    <title>icon_wallet_2</title>
    <desc>Created with Sketch.</desc>
    <defs>
        <polygon id="path-1" points="0 0.0142431451 25.03587 0.0142431451 25.03587 14.6559169 0 14.6559169"></polygon>
    </defs>
    <g id="main-錢包" stroke="none" stroke-width="1" fill="none" fill-rule="evenodd">
        <g id="一般錢包-CRC" transform="translate(-50.000000, -368.000000)">
            <g id="icon_wallet_2" transform="translate(50.000000, 368.000000)">
                <path d="M22.527856,15.3061224 C22.527856,19.9394162 18.876211,23.7088204 14.3877551,23.7088204 C9.8992992,23.7088204 6.24765424,19.9394162 6.24765424,15.3061224 C6.24765424,10.6728287 9.8992992,6.90342448 14.3877551,6.90342448 C18.876211,6.90342448 22.527856,10.6728287 22.527856,15.3061224 M4.89795918,15.3061224 C4.89795918,20.707545 9.15507735,25.1020408 14.3877551,25.1020408 C19.6204329,25.1020408 23.877551,20.707545 23.877551,15.3061224 C23.877551,9.90469985 19.6204329,5.51020408 14.3877551,5.51020408 C9.15507735,5.51020408 4.89795918,9.90469985 4.89795918,15.3061224" id="Fill-1" fill="#F9D649"></path>
                <path d="M13.9674093,9.79601161 L13.9674093,10.8914414 C13.5909623,10.9823543 13.2357412,11.1532704 12.9087915,11.4056818 C12.0141836,12.0959667 11.6121407,13.0525563 11.8332286,13.9645752 C12.0459332,14.8416278 12.8090834,15.4790433 13.824982,15.6279539 C16.1283453,15.9654037 16.5033654,16.3250456 16.4046383,17.1685303 C16.3521088,17.6179661 16.1050682,17.9397509 15.6702947,18.1244672 C14.9354159,18.4370209 13.6611504,18.304428 12.4706289,17.3042002 L11.6326531,18.3945016 C12.3524597,18.9992818 13.1657315,19.3996713 13.9672309,19.5743172 L13.9672309,20.8163265 L15.3049957,20.8163265 L15.3049957,19.6477935 C15.6084899,19.6110553 15.9006578,19.5362737 16.1740969,19.4199985 C17.0536326,19.0461836 17.6217367,18.2873644 17.7325928,17.3379545 C17.8585211,16.2604276 17.4543378,15.4266402 16.5635648,14.9267595 C15.8732782,14.5393309 14.962082,14.3820284 14.0106637,14.2426287 C13.5367382,14.1732552 13.2075589,13.9407048 13.1299686,13.6206916 C13.0471163,13.279139 13.2614263,12.8717563 13.7031562,12.5308564 C14.1709279,12.1700024 14.7221762,12.1168533 15.3884722,12.368239 C15.9536333,12.5816744 16.370124,12.9387986 16.3742265,12.9423419 L16.8025788,12.4052568 L17.2328039,11.8697569 C17.1751909,11.8191254 16.6474872,11.3665193 15.886745,11.0696306 C15.6901828,10.9928908 15.4962961,10.9343336 15.3050849,10.8921874 L15.3050849,9.79591837 L13.9674093,9.79601161 Z" id="Fill-3" fill="#F9D649"></path>
                <g id="Group-7">
                    <mask id="mask-2" fill="white">
                        <use xlink:href="#path-1"></use>
                    </mask>
                    <g id="Clip-6"></g>
                    <path d="M14.5610574,1.36643145 C17.4531711,1.36643145 20.2042651,2.2955713 22.4771652,4.01196044 L20.7089058,4.01196044 L20.7089058,5.36415776 L25.03587,5.36415776 L25.03587,1.01323751 L23.6911179,1.01323751 L23.6911179,3.24878027 C21.1115246,1.15350545 17.9226689,0.0142341305 14.5610574,0.0142341305 C6.53207996,0.0142341305 -8.96501458e-06,6.58248754 -8.96501458e-06,14.6559169 L1.34474322,14.6559169 C1.34474322,7.32808914 7.27357631,1.36643145 14.5610574,1.36643145" id="Fill-5" fill="#FFFFFF" mask="url(#mask-2)"></path>
                </g>
                <path d="M28.0301982,15.3061224 C28.0301982,22.660163 22.0449111,28.6429824 14.688039,28.6429824 C11.8511976,28.6429824 9.14097113,27.7593829 6.881544,26.1244481 L8.65387973,26.1244481 L8.65387973,24.7674304 L4.28571429,24.7674304 L4.28571429,29.1337704 L5.64327114,29.1337704 L5.64327114,26.8898965 C8.21774197,28.9048868 11.3743332,30 14.688039,30 C22.7936489,30 29.3877551,23.4084225 29.3877551,15.3061224 L28.0301982,15.3061224 Z" id="Fill-8" fill="#FFFFFF"></path>
            </g>
        </g>
    </g>
</svg>