<?xml version="1.0" encoding="UTF-8"?>
<svg width="10px" height="10px" viewBox="0 0 10 10" version="1.1" xmlns="http://www.w3.org/2000/svg" xmlns:xlink="http://www.w3.org/1999/xlink">
    <!-- Generator: Sketch 52.3 (67297) - http://www.bohemiancoding.com/sketch -->
    <title>icon-question</title>
    <desc>Created with Sketch.</desc>
    <defs>
        <polygon id="path-1" points="0 0 10 0 10 10 0 10"></polygon>
    </defs>
    <g id="main-錢包" stroke="none" stroke-width="1" fill="none" fill-rule="evenodd">
        <g id="錢包" transform="translate(-214.000000, -95.000000)">
            <g id="icon-question" transform="translate(214.000000, 95.000000)">
                <mask id="mask-2" fill="white">
                    <use xlink:href="#path-1"></use>
                </mask>
                <g id="Clip-2"></g>
                <path d="M6.70702365,4.49359015 C6.60702291,4.63565485 6.38712996,4.81206724 6.11006268,5.02793602 L5.8049517,5.23858742 C5.63745045,5.36880434 5.53625405,5.49130389 5.49842768,5.61184693 C5.46842745,5.70673789 5.45386213,5.73184649 5.45125341,5.92488926 L5.45081863,5.97391082 L4.28580993,5.97391082 L4.28917952,5.87532423 C4.30341876,5.46999962 4.31341883,5.23173962 4.48135487,5.03478382 C4.7448351,4.72543713 5.32603509,4.35119936 5.35060049,4.33532986 C5.43397067,4.27261269 5.50418859,4.20119991 5.55647159,4.12489584 C5.67875511,3.9563095 5.73288595,3.8235926 5.73288595,3.69315829 C5.73288595,3.51218069 5.6791899,3.34479 5.57299345,3.19576881 C5.47092747,3.05196498 5.27701298,2.97913916 4.9965761,2.97913916 C4.71842185,2.97913916 4.52798565,3.06739971 4.41407176,3.248486 C4.29689697,3.43468098 4.2376574,3.63022374 4.2376574,3.83000562 L4.2376574,3.87967935 L3.03645278,3.87967935 L3.03862671,3.82783171 C3.0696052,3.09207353 3.33221586,2.56229286 3.81884992,2.25316356 C4.12461307,2.05631645 4.5050507,1.95653421 4.94896705,1.95653421 C5.53005835,1.95653421 6.02060549,2.09772934 6.40680402,2.37620659 C6.79811129,2.65837947 6.99659103,3.08098662 6.99659103,3.63228895 C6.99659103,3.94065739 6.899199,4.23033024 6.70702365,4.49359015 M4.91842335,8.04346847 L4.89081445,8.04303369 C4.46559388,8.03042504 4.16580903,7.71716532 4.17787434,7.29825381 C4.18972226,6.88651618 4.49678977,6.58760423 4.90798849,6.58760423 L4.93266258,6.58803901 C5.36973106,6.60097375 5.66614632,6.91108131 5.65386362,7.34205799 C5.64168962,7.75499127 5.33940475,8.04346847 4.91842335,8.04346847 M4.93320607,0.000454401942 C2.17198981,0.0374107886 -0.0362875467,2.30598945 0.000451857941,5.0672837 C0.0374086555,7.82738231 2.30579515,10.0362873 5.06690272,9.99954828 C7.8275755,9.9623745 10.0362876,7.69368714 9.99954823,4.93271898 C9.96259143,2.17240298 7.69409624,-0.0363932894 4.93320607,0.000454401942" id="Fill-1" fill="#FFFFFF" mask="url(#mask-2)"></path>
            </g>
        </g>
    </g>
</svg>