<?xml version="1.0" encoding="utf-8"?>
<!-- Generator: Adobe Illustrator 22.0.0, SVG Export Plug-In . SVG Version: 6.00 Build 0)  -->
<svg version="1.1" id="圖層_1" xmlns="http://www.w3.org/2000/svg" xmlns:xlink="http://www.w3.org/1999/xlink" x="0px" y="0px"
	 viewBox="0 0 20 20" style="enable-background:new 0 0 20 20;" xml:space="preserve">
<style type="text/css">
	.st0{fill:#FFFDFD;}
</style>
<title>icon-add</title>
<desc>Created with Sketch.</desc>
<path class="st0" d="M18.6,9H11V1.4c0-0.6-0.4-1-1-1s-1,0.4-1,1V9H1.4c-0.6,0-1,0.4-1,1s0.4,1,1,1H9v7.8c0,0.6,0.4,1,1,1s1-0.4,1-1
	V11h7.6c0.6,0,1-0.4,1-1S19.2,9,18.6,9z"/>
</svg>
