<?xml version="1.0" encoding="utf-8"?>
<!-- Generator: Adobe Illustrator 22.0.1, SVG Export Plug-In . SVG Version: 6.00 Build 0)  -->
<svg version="1.1" id="圖層_1" xmlns="http://www.w3.org/2000/svg" xmlns:xlink="http://www.w3.org/1999/xlink" x="0px" y="0px"
	 viewBox="0 0 35 35" style="enable-background:new 0 0 35 35;" xml:space="preserve">
<style type="text/css">
	.st0{fill:none;}
	.st1{fill:#D49400;}
</style>
<title>line3</title>
<desc>Created with Sketch.</desc>
<rect id="Rectangle" class="st0" width="35" height="35"/>
<polygon id="Line-Copy-7" class="st1" points="0,18 0,17 35,17 35,18 "/>
</svg>
