<?xml version="1.0" encoding="utf-8"?>
<!-- Generator: Adobe Illustrator 22.0.0, SVG Export Plug-In . SVG Version: 6.00 Build 0)  -->
<svg version="1.1" id="圖層_1" xmlns="http://www.w3.org/2000/svg" xmlns:xlink="http://www.w3.org/1999/xlink" x="0px" y="0px"
	 viewBox="0 0 156 214" style="enable-background:new 0 0 156 214;" xml:space="preserve">
<style type="text/css">
	.st0{opacity:0.7;}
	.st1{fill:#C3C3C3;}
</style>
<title>nav</title>
<desc>Created with Sketch.</desc>
<g id="main-個人">
	<g id="個人首頁" transform="translate(-219.000000, -200.000000)">
		<g id="nav" transform="translate(319.000000, 300.000000)" class="st0">
			<polygon id="navigate_next---material-copy-7" class="st1" points="-33.3,-21.5 -3.7,7 -33.3,35.5 -40.3,28.8 -17.5,7 
				-40.3,-14.8 			"/>
		</g>
	</g>
</g>
</svg>
